Mini-challenge 3
…
2.3.3.2 tf-idf visualization

m_tf_idf <- tidy_m %>%
  bind_tf_idf(word,condition,n)

m_tf_idf %>%
  arrange(desc(tf_idf))

# A tibble: 4,155 x 6
   condition   word                      n      tf   idf  tf_idf
   <chr>       <chr>                 <int>   <dbl> <dbl>   <dbl>
 1 junk        rt                     1000 0.0557  1.10  0.0612 
 2 junk        kronosstar              883 0.0492  0.405 0.0199 
 3 junk        homelandilluminations   183 0.0102  1.10  0.0112 
 4 junk        grammar                 157 0.00875 1.10  0.00961
 5 junk        abilapost               329 0.0183  0.405 0.00743
 6 junk        rally                   257 0.0143  0.405 0.00581
 7 meaningful  abilapost                71 0.0140  0.405 0.00567
 8 meaningful  apd                      70 0.0138  0.405 0.00559
 9 junk        life                    205 0.0114  0.405 0.00463
10 meaningless goodstuffkronoslinks      7 0.00401 1.10  0.00441
# ... with 4,145 more rows
…
2.3.3.3 Bigrams visualization

meaningful_bigrams <- meaningful %>%
  unnest_tokens(bigram,message,token = "ngrams", n = 2)
meaningful_bigrams %>%
  count(bigram, sort = TRUE)

# A tibble: 5,638 x 2
   bigram                    n
   <chr>                 <int>
 1 dancing dolphin          41
 2 viktor e                 41
 3 of the                   40
 4 at the                   34
 5 in the                   32
 6 pok rally                31
 7 abila centralbulletin    30
 8 to the                   26
 9 dr newman                24
10 from the                 21
# ... with 5,628 more rows
…
junk_bigrams <- junk %>%
  unnest_tokens(bigram,message,token = "ngrams", n = 2)
junk_bigrams %>%
  count(bigram, sort = TRUE)

# A tibble: 7,359 x 2
   bigram                       n
   <chr>                    <int>
 1 pokrally hi                670
 2 kronosstar pokrally        597
 3 pok rally                  231
 4 rt homelandilluminations   183
 5 rt abilapost               169
 6 rally grammar              157
 7 rt kronosstar              143
 8 if you                     126
 9 of the                     116
10 you can                    104
# ... with 7,349 more rows
…
meaningless_bigrams <- meaningless %>%
  unnest_tokens(bigram,message,token = "ngrams", n = 2)
meaningless_bigrams %>%
  count(bigram, sort = TRUE)

# A tibble: 2,132 x 2
   bigram                         n
   <chr>                      <int>
 1 of the                        13
 2 badprofiles.kronos tacky      11
 3 need a                        10
 4 viktor e                      10
 5 a boost                        9
 6 abila badcredit                9
 7 boost fixit.kronos             9
 8 credit rating                  9
 9 creditratings abila            9
10 fixit.kronos creditratings     9
# ... with 2,122 more rows
…
